 51
 14.785557
  Rh 0.000000 0.000000 15.000000
  Rh 2.687006 0.000000 15.000000
  Rh 5.374012 0.000000 15.000000
  Rh 1.343503 2.327015 15.000000
  Rh 4.030509 2.327015 15.000000
  Rh 6.717514 2.327015 15.000000
  Rh 2.687006 4.654031 15.000000
  Rh 5.374012 4.654031 15.000000
  Rh 8.061017 4.654031 15.000000
  Rh 4.030509 6.981046 15.000000
  Rh 6.717514 6.981046 15.000000
  Rh 9.404520 6.981046 15.000000
  Rh 1.343503 0.775672 17.193931
  Rh 4.030509 0.775672 17.193931
  Rh 6.717514 0.775672 17.193931
  Rh 2.687006 3.102687 17.193931
  Rh 5.374012 3.102687 17.193931
  Rh 8.061017 3.102687 17.193931
  Rh 4.030509 5.429702 17.193931
  Rh 6.717514 5.429702 17.193931
  Rh 9.404520 5.429702 17.193931
  Rh 5.374012 7.756718 17.193931
  Rh 8.061017 7.756718 17.193931
  Rh 10.748023 7.756718 17.193931
  Rh 8.063934 1.539288 19.404243
  Rh 2.685007 1.538083 19.404027
  Rh 5.376003 1.540964 19.404846
  Rh 9.391633 3.881208 19.430465
  Rh 4.032200 3.875773 19.393133
  Rh 6.723227 3.873090 19.403788
  Rh 10.750762 6.200375 19.401072
  Rh 5.381849 6.201273 19.418737
  Rh 8.075222 6.208631 19.410098
  Rh 12.092274 8.522063 19.402938
  Rh 6.717569 8.507212 19.434167
  Rh 9.406063 8.524515 19.401580
  Rh 8.065661 -0.006784 21.631690
  Rh 8.062193 9.316649 21.624255
  Rh 10.751364 9.305806 21.637419
  Rh 1.341444 2.322078 21.630330
  Rh 4.032855 2.315592 21.624696
  Rh 6.717591 2.312703 21.630025
  Rh 2.701680 4.635820 21.623318
  Rh 5.352432 4.630387 21.610914
  Rh 8.059614 4.643441 21.667964
  Rh 4.026669 6.978820 21.629561
  Rh 6.735796 6.973735 21.700356
  Rh 9.439751 6.994676 21.765082
  C 8.753805 6.475933 23.630598
  O 9.487555 6.506163 24.594604
  O 7.486151 6.118369 23.551290
 51
 14.702096
  Rh 0.000000 0.000000 15.000000
  Rh 2.687006 0.000000 15.000000
  Rh 5.374012 0.000000 15.000000
  Rh 1.343503 2.327015 15.000000
  Rh 4.030509 2.327015 15.000000
  Rh 6.717514 2.327015 15.000000
  Rh 2.687006 4.654031 15.000000
  Rh 5.374012 4.654031 15.000000
  Rh 8.061017 4.654031 15.000000
  Rh 4.030509 6.981046 15.000000
  Rh 6.717514 6.981046 15.000000
  Rh 9.404520 6.981046 15.000000
  Rh 1.343503 0.775672 17.193931
  Rh 4.030509 0.775672 17.193931
  Rh 6.717514 0.775672 17.193931
  Rh 2.687006 3.102687 17.193931
  Rh 5.374012 3.102687 17.193931
  Rh 8.061017 3.102687 17.193931
  Rh 4.030509 5.429702 17.193931
  Rh 6.717514 5.429702 17.193931
  Rh 9.404520 5.429702 17.193931
  Rh 5.374012 7.756718 17.193931
  Rh 8.061017 7.756718 17.193931
  Rh 10.748023 7.756718 17.193931
  Rh 8.064240 1.539506 19.404375
  Rh 2.685375 1.538216 19.404182
  Rh 5.376245 1.541279 19.404880
  Rh 9.392313 3.881307 19.429746
  Rh 4.032475 3.876050 19.393331
  Rh 6.723505 3.873474 19.403978
  Rh 10.751251 6.200514 19.401190
  Rh 5.382290 6.201584 19.419429
  Rh 8.075668 6.208883 19.410793
  Rh 12.092669 8.522359 19.403067
  Rh 6.717911 8.507401 19.434320
  Rh 9.406406 8.524658 19.401628
  Rh 8.065919 -0.006129 21.631970
  Rh 8.062585 9.317269 21.624399
  Rh 10.751726 9.306451 21.637438
  Rh 1.341849 2.322539 21.630366
  Rh 4.032974 2.316345 21.624849
  Rh 6.717728 2.313173 21.630195
  Rh 2.701111 4.636653 21.623821
  Rh 5.352349 4.631072 21.611555
  Rh 8.059788 4.643273 21.666750
  Rh 4.026549 6.979426 21.629911
  Rh 6.735686 6.973555 21.701338
  Rh 9.439400 6.994944 21.765299
  C 8.748733 6.492781 23.634604
  O 9.484631 6.531688 24.596771
  O 7.483206 6.132424 23.557569
 51
 14.621131
  Rh 0.000000 0.000000 15.000000
  Rh 2.687006 0.000000 15.000000
  Rh 5.374012 0.000000 15.000000
  Rh 1.343503 2.327015 15.000000
  Rh 4.030509 2.327015 15.000000
  Rh 6.717514 2.327015 15.000000
  Rh 2.687006 4.654031 15.000000
  Rh 5.374012 4.654031 15.000000
  Rh 8.061017 4.654031 15.000000
  Rh 4.030509 6.981046 15.000000
  Rh 6.717514 6.981046 15.000000
  Rh 9.404520 6.981046 15.000000
  Rh 1.343503 0.775672 17.193931
  Rh 4.030509 0.775672 17.193931
  Rh 6.717514 0.775672 17.193931
  Rh 2.687006 3.102687 17.193931
  Rh 5.374012 3.102687 17.193931
  Rh 8.061017 3.102687 17.193931
  Rh 4.030509 5.429702 17.193931
  Rh 6.717514 5.429702 17.193931
  Rh 9.404520 5.429702 17.193931
  Rh 5.374012 7.756718 17.193931
  Rh 8.061017 7.756718 17.193931
  Rh 10.748023 7.756718 17.193931
  Rh 8.064539 1.539720 19.404469
  Rh 2.685744 1.538321 19.404262
  Rh 5.376486 1.541586 19.404859
  Rh 9.393008 3.881399 19.429061
  Rh 4.032756 3.876345 19.393579
  Rh 6.723776 3.873860 19.404153
  Rh 10.751733 6.200662 19.401303
  Rh 5.382730 6.201898 19.420037
  Rh 8.076120 6.209116 19.411434
  Rh 12.093050 8.522641 19.403153
  Rh 6.718261 8.507607 19.434468
  Rh 9.406747 8.524769 19.401725
  Rh 8.066134 -0.005472 21.632235
  Rh 8.062960 9.317888 21.624539
  Rh 10.752081 9.307087 21.637467
  Rh 1.342221 2.323003 21.630364
  Rh 4.033104 2.317104 21.624997
  Rh 6.717857 2.313710 21.630370
  Rh 2.700573 4.637447 21.624325
  Rh 5.352517 4.631860 21.612120
  Rh 8.059946 4.642923 21.665444
  Rh 4.026354 6.980043 21.630258
  Rh 6.735571 6.973441 21.702290
  Rh 9.438726 6.995175 21.765505
  C 8.743568 6.509134 23.638192
  O 9.481571 6.556360 24.598401
  O 7.479887 6.146975 23.563593
 51
 14.538904
  Rh 0.000000 0.000000 15.000000
  Rh 2.687006 0.000000 15.000000
  Rh 5.374012 0.000000 15.000000
  Rh 1.343503 2.327015 15.000000
  Rh 4.030509 2.327015 15.000000
  Rh 6.717514 2.327015 15.000000
  Rh 2.687006 4.654031 15.000000
  Rh 5.374012 4.654031 15.000000
  Rh 8.061017 4.654031 15.000000
  Rh 4.030509 6.981046 15.000000
  Rh 6.717514 6.981046 15.000000
  Rh 9.404520 6.981046 15.000000
  Rh 1.343503 0.775672 17.193931
  Rh 4.030509 0.775672 17.193931
  Rh 6.717514 0.775672 17.193931
  Rh 2.687006 3.102687 17.193931
  Rh 5.374012 3.102687 17.193931
  Rh 8.061017 3.102687 17.193931
  Rh 4.030509 5.429702 17.193931
  Rh 6.717514 5.429702 17.193931
  Rh 9.404520 5.429702 17.193931
  Rh 5.374012 7.756718 17.193931
  Rh 8.061017 7.756718 17.193931
  Rh 10.748023 7.756718 17.193931
  Rh 8.064840 1.539946 19.404540
  Rh 2.686139 1.538448 19.404348
  Rh 5.376723 1.541892 19.404841
  Rh 9.393741 3.881501 19.428275
  Rh 4.033068 3.876649 19.393822
  Rh 6.724045 3.874258 19.404288
  Rh 10.752261 6.200810 19.401412
  Rh 5.383153 6.202237 19.420636
  Rh 8.076576 6.209351 19.412077
  Rh 12.093458 8.522941 19.403244
  Rh 6.718604 8.507833 19.434548
  Rh 9.407091 8.524888 19.401849
  Rh 8.066325 -0.004776 21.632506
  Rh 8.063312 9.318527 21.624670
  Rh 10.752398 9.307719 21.637492
  Rh 1.342630 2.323457 21.630358
  Rh 4.033268 2.317877 21.625135
  Rh 6.717993 2.314253 21.630546
  Rh 2.700052 4.638271 21.624815
  Rh 5.352772 4.632714 21.612755
  Rh 8.060069 4.642437 21.664088
  Rh 4.026082 6.980683 21.630565
  Rh 6.735426 6.973377 21.703192
  Rh 9.437933 6.995466 21.765962
  C 8.738078 6.525187 23.641994
  O 9.478006 6.580298 24.600413
  O 7.475934 6.162147 23.569817
 51
 14.453194
  Rh 0.000000 0.000000 15.000000
  Rh 2.687006 0.000000 15.000000
  Rh 5.374012 0.000000 15.000000
  Rh 1.343503 2.327015 15.000000
  Rh 4.030509 2.327015 15.000000
  Rh 6.717514 2.327015 15.000000
  Rh 2.687006 4.654031 15.000000
  Rh 5.374012 4.654031 15.000000
  Rh 8.061017 4.654031 15.000000
  Rh 4.030509 6.981046 15.000000
  Rh 6.717514 6.981046 15.000000
  Rh 9.404520 6.981046 15.000000
  Rh 1.343503 0.775672 17.193931
  Rh 4.030509 0.775672 17.193931
  Rh 6.717514 0.775672 17.193931
  Rh 2.687006 3.102687 17.193931
  Rh 5.374012 3.102687 17.193931
  Rh 8.061017 3.102687 17.193931
  Rh 4.030509 5.429702 17.193931
  Rh 6.717514 5.429702 17.193931
  Rh 9.404520 5.429702 17.193931
  Rh 5.374012 7.756718 17.193931
  Rh 8.061017 7.756718 17.193931
  Rh 10.748023 7.756718 17.193931
  Rh 8.065157 1.540174 19.404636
  Rh 2.686545 1.538559 19.404466
  Rh 5.376963 1.542198 19.404849
  Rh 9.394522 3.881600 19.427468
  Rh 4.033398 3.876966 19.394140
  Rh 6.724313 3.874662 19.404422
  Rh 10.752743 6.200983 19.401540
  Rh 5.383602 6.202591 19.421215
  Rh 8.077059 6.209585 19.412697
  Rh 12.093810 8.523249 19.403370
  Rh 6.718973 8.508082 19.434660
  Rh 9.407451 8.524977 19.402020
  Rh 8.066484 -0.004058 21.632735
  Rh 8.063658 9.319207 21.624735
  Rh 10.752717 9.308361 21.637507
  Rh 1.343046 2.323917 21.630310
  Rh 4.033443 2.318682 21.625236
  Rh 6.718120 2.314834 21.630728
  Rh 2.699542 4.639102 21.625304
  Rh 5.353184 4.633640 21.613335
  Rh 8.060174 4.641879 21.662632
  Rh 4.025749 6.981350 21.630856
  Rh 6.735237 6.973376 21.704052
  Rh 9.436986 6.995725 21.766437
  C 8.732358 6.541595 23.645580
  O 9.474260 6.604265 24.602072
  O 7.471495 6.178583 23.576028
 51
 14.362480
  Rh 0.000000 0.000000 15.000000
  Rh 2.687006 0.000000 15.000000
  Rh 5.374012 0.000000 15.000000
  Rh 1.343503 2.327015 15.000000
  Rh 4.030509 2.327015 15.000000
  Rh 6.717514 2.327015 15.000000
  Rh 2.687006 4.654031 15.000000
  Rh 5.374012 4.654031 15.000000
  Rh 8.061017 4.654031 15.000000
  Rh 4.030509 6.981046 15.000000
  Rh 6.717514 6.981046 15.000000
  Rh 9.404520 6.981046 15.000000
  Rh 1.343503 0.775672 17.193931
  Rh 4.030509 0.775672 17.193931
  Rh 6.717514 0.775672 17.193931
  Rh 2.687006 3.102687 17.193931
  Rh 5.374012 3.102687 17.193931
  Rh 8.061017 3.102687 17.193931
  Rh 4.030509 5.429702 17.193931
  Rh 6.717514 5.429702 17.193931
  Rh 9.404520 5.429702 17.193931
  Rh 5.374012 7.756718 17.193931
  Rh 8.061017 7.756718 17.193931
  Rh 10.748023 7.756718 17.193931
  Rh 8.065471 1.540424 19.404703
  Rh 2.686970 1.538694 19.404541
  Rh 5.377205 1.542515 19.404841
  Rh 9.395345 3.881704 19.426559
  Rh 4.033748 3.877302 19.394487
  Rh 6.724587 3.875082 19.404528
  Rh 10.753276 6.201160 19.401677
  Rh 5.384049 6.202983 19.421794
  Rh 8.077545 6.209825 19.413317
  Rh 12.094195 8.523573 19.403452
  Rh 6.719327 8.508343 19.434684
  Rh 9.407807 8.525075 19.402179
  Rh 8.066609 -0.003295 21.632968
  Rh 8.063989 9.319922 21.624812
  Rh 10.753026 9.309014 21.637548
  Rh 1.343496 2.324400 21.630272
  Rh 4.033646 2.319549 21.625349
  Rh 6.718235 2.315434 21.630920
  Rh 2.699016 4.639990 21.625796
  Rh 5.353677 4.634645 21.614005
  Rh 8.060270 4.641209 21.661058
  Rh 4.025352 6.982032 21.631121
  Rh 6.735034 6.973402 21.704917
  Rh 9.435946 6.995995 21.767119
  C 8.726365 6.558153 23.649396
  O 9.470304 6.627903 24.603870
  O 7.466535 6.196084 23.582590
 51
 14.262580
  Rh 0.000000 0.000000 15.000000
  Rh 2.687006 0.000000 15.000000
  Rh 5.374012 0.000000 15.000000
  Rh 1.343503 2.327015 15.000000
  Rh 4.030509 2.327015 15.000000
  Rh 6.717514 2.327015 15.000000
  Rh 2.687006 4.654031 15.000000
  Rh 5.374012 4.654031 15.000000
  Rh 8.061017 4.654031 15.000000
  Rh 4.030509 6.981046 15.000000
  Rh 6.717514 6.981046 15.000000
  Rh 9.404520 6.981046 15.000000
  Rh 1.343503 0.775672 17.193931
  Rh 4.030509 0.775672 17.193931
  Rh 6.717514 0.775672 17.193931
  Rh 2.687006 3.102687 17.193931
  Rh 5.374012 3.102687 17.193931
  Rh 8.061017 3.102687 17.193931
  Rh 4.030509 5.429702 17.193931
  Rh 6.717514 5.429702 17.193931
  Rh 9.404520 5.429702 17.193931
  Rh 5.374012 7.756718 17.193931
  Rh 8.061017 7.756718 17.193931
  Rh 10.748023 7.756718 17.193931
  Rh 8.065803 1.540692 19.404752
  Rh 2.687426 1.538841 19.404662
  Rh 5.377457 1.542850 19.404818
  Rh 9.396230 3.881814 19.425559
  Rh 4.034129 3.877658 19.394846
  Rh 6.724870 3.875525 19.404614
  Rh 10.753776 6.201355 19.401795
  Rh 5.384535 6.203407 19.422382
  Rh 8.078078 6.210064 19.413974
  Rh 12.094590 8.523942 19.403532
  Rh 6.719701 8.508635 19.434705
  Rh 9.408177 8.525164 19.402356
  Rh 8.066713 -0.002489 21.633163
  Rh 8.064319 9.320678 21.624839
  Rh 10.753341 9.309698 21.637600
  Rh 1.343987 2.324908 21.630190
  Rh 4.033855 2.320483 21.625447
  Rh 6.718344 2.316074 21.631122
  Rh 2.698434 4.640945 21.626344
  Rh 5.354310 4.635750 21.614709
  Rh 8.060333 4.640477 21.659338
  Rh 4.024906 6.982765 21.631388
  Rh 6.734838 6.973473 21.705855
  Rh 9.434788 6.996274 21.767928
  C 8.720169 6.575606 23.653374
  O 9.466351 6.652136 24.605617
  O 7.461136 6.215469 23.589583
 51
 14.150845
  Rh 0.000000 0.000000 15.000000
  Rh 2.687006 0.000000 15.000000
  Rh 5.374012 0.000000 15.000000
  Rh 1.343503 2.327015 15.000000
  Rh 4.030509 2.327015 15.000000
  Rh 6.717514 2.327015 15.000000
  Rh 2.687006 4.654031 15.000000
  Rh 5.374012 4.654031 15.000000
  Rh 8.061017 4.654031 15.000000
  Rh 4.030509 6.981046 15.000000
  Rh 6.717514 6.981046 15.000000
  Rh 9.404520 6.981046 15.000000
  Rh 1.343503 0.775672 17.193931
  Rh 4.030509 0.775672 17.193931
  Rh 6.717514 0.775672 17.193931
  Rh 2.687006 3.102687 17.193931
  Rh 5.374012 3.102687 17.193931
  Rh 8.061017 3.102687 17.193931
  Rh 4.030509 5.429702 17.193931
  Rh 6.717514 5.429702 17.193931
  Rh 9.404520 5.429702 17.193931
  Rh 5.374012 7.756718 17.193931
  Rh 8.061017 7.756718 17.193931
  Rh 10.748023 7.756718 17.193931
  Rh 8.066159 1.540992 19.404774
  Rh 2.687922 1.539013 19.404760
  Rh 5.377719 1.543203 19.404779
  Rh 9.397209 3.881923 19.424418
  Rh 4.034552 3.878052 19.395266
  Rh 6.725168 3.876010 19.404670
  Rh 10.754315 6.201577 19.401939
  Rh 5.385054 6.203876 19.423029
  Rh 8.078647 6.210333 19.414653
  Rh 12.094993 8.524341 19.403657
  Rh 6.720104 8.508963 19.434696
  Rh 9.408568 8.525258 19.402568
  Rh 8.066796 -0.001610 21.633338
  Rh 8.064654 9.321489 21.624839
  Rh 10.753671 9.310420 21.637644
  Rh 1.344538 2.325472 21.630095
  Rh 4.034094 2.321515 21.625550
  Rh 6.718456 2.316777 21.631354
  Rh 2.697801 4.641984 21.626919
  Rh 5.355064 4.636962 21.615494
  Rh 8.060378 4.639660 21.657525
  Rh 4.024390 6.983553 21.631609
  Rh 6.734615 6.973607 21.706843
  Rh 9.433511 6.996583 21.768964
  C 8.713518 6.594460 23.657635
  O 9.462132 6.677605 24.607497
  O 7.455045 6.237259 23.597180
 51
 14.023926
  Rh 0.000000 0.000000 15.000000
  Rh 2.687006 0.000000 15.000000
  Rh 5.374012 0.000000 15.000000
  Rh 1.343503 2.327015 15.000000
  Rh 4.030509 2.327015 15.000000
  Rh 6.717514 2.327015 15.000000
  Rh 2.687006 4.654031 15.000000
  Rh 5.374012 4.654031 15.000000
  Rh 8.061017 4.654031 15.000000
  Rh 4.030509 6.981046 15.000000
  Rh 6.717514 6.981046 15.000000
  Rh 9.404520 6.981046 15.000000
  Rh 1.343503 0.775672 17.193931
  Rh 4.030509 0.775672 17.193931
  Rh 6.717514 0.775672 17.193931
  Rh 2.687006 3.102687 17.193931
  Rh 5.374012 3.102687 17.193931
  Rh 8.061017 3.102687 17.193931
  Rh 4.030509 5.429702 17.193931
  Rh 6.717514 5.429702 17.193931
  Rh 9.404520 5.429702 17.193931
  Rh 5.374012 7.756718 17.193931
  Rh 8.061017 7.756718 17.193931
  Rh 10.748023 7.756718 17.193931
  Rh 8.066528 1.541337 19.404799
  Rh 2.688453 1.539210 19.404882
  Rh 5.377979 1.543590 19.404730
  Rh 9.398285 3.882042 19.423140
  Rh 4.035000 3.878501 19.395738
  Rh 6.725473 3.876531 19.404697
  Rh 10.754902 6.201813 19.402123
  Rh 5.385608 6.204376 19.423762
  Rh 8.079264 6.210614 19.415370
  Rh 12.095415 8.524773 19.403729
  Rh 6.720535 8.509326 19.434636
  Rh 9.408969 8.525359 19.402813
  Rh 8.066864 -0.000645 21.633515
  Rh 8.065013 9.322395 21.624782
  Rh 10.753982 9.311178 21.637698
  Rh 1.345136 2.326088 21.629955
  Rh 4.034336 2.322666 21.625626
  Rh 6.718550 2.317533 21.631585
  Rh 2.697074 4.643156 21.627578
  Rh 5.355987 4.638342 21.616382
  Rh 8.060409 4.638737 21.655473
  Rh 4.023823 6.984379 21.631797
  Rh 6.734404 6.973796 21.708008
  Rh 9.432081 6.996879 21.770119
  C 8.706492 6.614518 23.662249
  O 9.457934 6.703822 24.609304
  O 7.448369 6.261497 23.605554
 51
 13.876908
  Rh 0.000000 0.000000 15.000000
  Rh 2.687006 0.000000 15.000000
  Rh 5.374012 0.000000 15.000000
  Rh 1.343503 2.327015 15.000000
  Rh 4.030509 2.327015 15.000000
  Rh 6.717514 2.327015 15.000000
  Rh 2.687006 4.654031 15.000000
  Rh 5.374012 4.654031 15.000000
  Rh 8.061017 4.654031 15.000000
  Rh 4.030509 6.981046 15.000000
  Rh 6.717514 6.981046 15.000000
  Rh 9.404520 6.981046 15.000000
  Rh 1.343503 0.775672 17.193931
  Rh 4.030509 0.775672 17.193931
  Rh 6.717514 0.775672 17.193931
  Rh 2.687006 3.102687 17.193931
  Rh 5.374012 3.102687 17.193931
  Rh 8.061017 3.102687 17.193931
  Rh 4.030509 5.429702 17.193931
  Rh 6.717514 5.429702 17.193931
  Rh 9.404520 5.429702 17.193931
  Rh 5.374012 7.756718 17.193931
  Rh 8.061017 7.756718 17.193931
  Rh 10.748023 7.756718 17.193931
  Rh 8.066927 1.541725 19.404833
  Rh 2.689041 1.539441 19.405034
  Rh 5.378264 1.544010 19.404697
  Rh 9.399485 3.882199 19.421699
  Rh 4.035516 3.879014 19.396324
  Rh 6.725805 3.877130 19.404744
  Rh 10.755523 6.202101 19.402307
  Rh 5.386233 6.204966 19.424561
  Rh 8.079945 6.210915 19.416186
  Rh 12.095875 8.525268 19.403856
  Rh 6.720992 8.509753 19.434545
  Rh 9.409402 8.525455 19.403162
  Rh 8.066905 0.000452 21.633644
  Rh 8.065375 9.323398 21.624647
  Rh 10.754315 9.311999 21.637734
  Rh 1.345812 2.326790 21.629765
  Rh 4.034628 2.323929 21.625732
  Rh 6.718657 2.318378 21.631844
  Rh 2.696293 4.644443 21.628188
  Rh 5.357092 4.639851 21.617414
  Rh 8.060463 4.637655 21.653257
  Rh 4.023174 6.985307 21.631971
  Rh 6.734138 6.974138 21.709242
  Rh 9.430434 6.997184 21.771615
  C 8.698714 6.636842 23.667144
  O 9.453246 6.732231 24.611149
  O 7.440701 6.289241 23.614661
 51
 13.702936
  Rh 0.000000 0.000000 15.000000
  Rh 2.687006 0.000000 15.000000
  Rh 5.374012 0.000000 15.000000
  Rh 1.343503 2.327015 15.000000
  Rh 4.030509 2.327015 15.000000
  Rh 6.717514 2.327015 15.000000
  Rh 2.687006 4.654031 15.000000
  Rh 5.374012 4.654031 15.000000
  Rh 8.061017 4.654031 15.000000
  Rh 4.030509 6.981046 15.000000
  Rh 6.717514 6.981046 15.000000
  Rh 9.404520 6.981046 15.000000
  Rh 1.343503 0.775672 17.193931
  Rh 4.030509 0.775672 17.193931
  Rh 6.717514 0.775672 17.193931
  Rh 2.687006 3.102687 17.193931
  Rh 5.374012 3.102687 17.193931
  Rh 8.061017 3.102687 17.193931
  Rh 4.030509 5.429702 17.193931
  Rh 6.717514 5.429702 17.193931
  Rh 9.404520 5.429702 17.193931
  Rh 5.374012 7.756718 17.193931
  Rh 8.061017 7.756718 17.193931
  Rh 10.748023 7.756718 17.193931
  Rh 8.067364 1.542192 19.404849
  Rh 2.689691 1.539736 19.405220
  Rh 5.378577 1.544484 19.404642
  Rh 9.400846 3.882374 19.419984
  Rh 4.036116 3.879605 19.396985
  Rh 6.726166 3.877819 19.404792
  Rh 10.756218 6.202437 19.402498
  Rh 5.386936 6.205633 19.425485
  Rh 8.080707 6.211254 19.417109
  Rh 12.096355 8.525838 19.403948
  Rh 6.721499 8.510252 19.434368
  Rh 9.409880 8.525554 19.403539
  Rh 8.066929 0.001711 21.633772
  Rh 8.065758 9.324534 21.624481
  Rh 10.754687 9.312900 21.637792
  Rh 1.346588 2.327588 21.629540
  Rh 4.034957 2.325376 21.625853
  Rh 6.718759 2.319324 21.632158
  Rh 2.695376 4.645935 21.628872
  Rh 5.358453 4.641582 21.618681
  Rh 8.060526 4.636413 21.650828
  Rh 4.022434 6.986333 21.632119
  Rh 6.733842 6.974658 21.710675
  Rh 9.428582 6.997540 21.773436
  C 8.690243 6.662227 23.672489
  O 9.448306 6.763766 24.613040
  O 7.432136 6.321550 23.624890
 51
 13.498876
  Rh 0.000000 0.000000 15.000000
  Rh 2.687006 0.000000 15.000000
  Rh 5.374012 0.000000 15.000000
  Rh 1.343503 2.327015 15.000000
  Rh 4.030509 2.327015 15.000000
  Rh 6.717514 2.327015 15.000000
  Rh 2.687006 4.654031 15.000000
  Rh 5.374012 4.654031 15.000000
  Rh 8.061017 4.654031 15.000000
  Rh 4.030509 6.981046 15.000000
  Rh 6.717514 6.981046 15.000000
  Rh 9.404520 6.981046 15.000000
  Rh 1.343503 0.775672 17.193931
  Rh 4.030509 0.775672 17.193931
  Rh 6.717514 0.775672 17.193931
  Rh 2.687006 3.102687 17.193931
  Rh 5.374012 3.102687 17.193931
  Rh 8.061017 3.102687 17.193931
  Rh 4.030509 5.429702 17.193931
  Rh 6.717514 5.429702 17.193931
  Rh 9.404520 5.429702 17.193931
  Rh 5.374012 7.756718 17.193931
  Rh 8.061017 7.756718 17.193931
  Rh 10.748023 7.756718 17.193931
  Rh 8.067818 1.542750 19.404860
  Rh 2.690401 1.540104 19.405436
  Rh 5.378893 1.545011 19.404624
  Rh 9.402355 3.882599 19.417973
  Rh 4.036798 3.880268 19.397755
  Rh 6.726524 3.878590 19.404820
  Rh 10.756968 6.202825 19.402689
  Rh 5.387731 6.206380 19.426603
  Rh 8.081538 6.211631 19.418132
  Rh 12.096867 8.526501 19.404095
  Rh 6.722029 8.510835 19.434080
  Rh 9.410384 8.525681 19.404014
  Rh 8.066909 0.003154 21.633843
  Rh 8.066168 9.325851 21.624222
  Rh 10.755073 9.313864 21.637809
  Rh 1.347473 2.328517 21.629302
  Rh 4.035332 2.327013 21.625995
  Rh 6.718842 2.320367 21.632503
  Rh 2.694315 4.647648 21.629599
  Rh 5.360096 4.643545 21.620271
  Rh 8.060609 4.634975 21.648118
  Rh 4.021619 6.987460 21.632225
  Rh 6.733513 6.975417 21.712314
  Rh 9.426545 6.997912 21.775590
  C 8.681068 6.690668 23.678309
  O 9.443280 6.798184 24.614856
  O 7.422621 6.358696 23.636381
 51
 13.261365
  Rh 0.000000 0.000000 15.000000
  Rh 2.687006 0.000000 15.000000
  Rh 5.374012 0.000000 15.000000
  Rh 1.343503 2.327015 15.000000
  Rh 4.030509 2.327015 15.000000
  Rh 6.717514 2.327015 15.000000
  Rh 2.687006 4.654031 15.000000
  Rh 5.374012 4.654031 15.000000
  Rh 8.061017 4.654031 15.000000
  Rh 4.030509 6.981046 15.000000
  Rh 6.717514 6.981046 15.000000
  Rh 9.404520 6.981046 15.000000
  Rh 1.343503 0.775672 17.193931
  Rh 4.030509 0.775672 17.193931
  Rh 6.717514 0.775672 17.193931
  Rh 2.687006 3.102687 17.193931
  Rh 5.374012 3.102687 17.193931
  Rh 8.061017 3.102687 17.193931
  Rh 4.030509 5.429702 17.193931
  Rh 6.717514 5.429702 17.193931
  Rh 9.404520 5.429702 17.193931
  Rh 5.374012 7.756718 17.193931
  Rh 8.061017 7.756718 17.193931
  Rh 10.748023 7.756718 17.193931
  Rh 8.068297 1.543420 19.404810
  Rh 2.691162 1.540577 19.405660
  Rh 5.379223 1.545601 19.404591
  Rh 9.404038 3.882877 19.415670
  Rh 4.037573 3.881043 19.398672
  Rh 6.726891 3.879472 19.404873
  Rh 10.757761 6.203290 19.402866
  Rh 5.388640 6.207226 19.427918
  Rh 8.082461 6.212033 19.419275
  Rh 12.097423 8.527247 19.404211
  Rh 6.722592 8.511533 19.433655
  Rh 9.410910 8.525802 19.404556
  Rh 8.066839 0.004811 21.633892
  Rh 8.066592 9.327378 21.623898
  Rh 10.755470 9.314891 21.637831
  Rh 1.348480 2.329601 21.629010
  Rh 4.035772 2.328860 21.626211
  Rh 6.718912 2.321554 21.632925
  Rh 2.693151 4.649591 21.630311
  Rh 5.362067 4.645744 21.622201
  Rh 8.060775 4.633360 21.645226
  Rh 4.020708 6.988695 21.632294
  Rh 6.733057 6.976546 21.714142
  Rh 9.424182 6.998226 21.778141
  C 8.670529 6.723056 23.684446
  O 9.437424 6.836609 24.616380
  O 7.411413 6.401686 23.648976
 51
 12.994809
  Rh 0.000000 0.000000 15.000000
  Rh 2.687006 0.000000 15.000000
  Rh 5.374012 0.000000 15.000000
  Rh 1.343503 2.327015 15.000000
  Rh 4.030509 2.327015 15.000000
  Rh 6.717514 2.327015 15.000000
  Rh 2.687006 4.654031 15.000000
  Rh 5.374012 4.654031 15.000000
  Rh 8.061017 4.654031 15.000000
  Rh 4.030509 6.981046 15.000000
  Rh 6.717514 6.981046 15.000000
  Rh 9.404520 6.981046 15.000000
  Rh 1.343503 0.775672 17.193931
  Rh 4.030509 0.775672 17.193931
  Rh 6.717514 0.775672 17.193931
  Rh 2.687006 3.102687 17.193931
  Rh 5.374012 3.102687 17.193931
  Rh 8.061017 3.102687 17.193931
  Rh 4.030509 5.429702 17.193931
  Rh 6.717514 5.429702 17.193931
  Rh 9.404520 5.429702 17.193931
  Rh 5.374012 7.756718 17.193931
  Rh 8.061017 7.756718 17.193931
  Rh 10.748023 7.756718 17.193931
  Rh 8.068747 1.544199 19.404761
  Rh 2.691936 1.541170 19.405870
  Rh 5.379534 1.546247 19.404551
  Rh 9.405792 3.883221 19.413133
  Rh 4.038416 3.881912 19.399732
  Rh 6.727202 3.880440 19.404931
  Rh 10.758597 6.203804 19.402984
  Rh 5.389605 6.208130 19.429454
  Rh 8.083423 6.212457 19.420450
  Rh 12.098016 8.528066 19.404355
  Rh 6.723143 8.512365 19.433058
  Rh 9.411405 8.525946 19.405131
  Rh 8.066701 0.006688 21.633861
  Rh 8.066988 9.329127 21.623471
  Rh 10.755853 9.315936 21.637827
  Rh 1.349566 2.330840 21.628706
  Rh 4.036272 2.330844 21.626544
  Rh 6.718961 2.322821 21.633416
  Rh 2.691931 4.651725 21.630888
  Rh 5.364298 4.648067 21.624601
  Rh 8.060998 4.631661 21.642167
  Rh 4.019751 6.989996 21.632293
  Rh 6.732439 6.978095 21.716030
  Rh 9.421625 6.998422 21.781042
  C 8.658839 6.758708 23.690726
  O 9.431118 6.878169 24.617396
  O 7.398728 6.449954 23.662471
 51
 12.721948
  Rh 0.000000 0.000000 15.000000
  Rh 2.687006 0.000000 15.000000
  Rh 5.374012 0.000000 15.000000
  Rh 1.343503 2.327015 15.000000
  Rh 4.030509 2.327015 15.000000
  Rh 6.717514 2.327015 15.000000
  Rh 2.687006 4.654031 15.000000
  Rh 5.374012 4.654031 15.000000
  Rh 8.061017 4.654031 15.000000
  Rh 4.030509 6.981046 15.000000
  Rh 6.717514 6.981046 15.000000
  Rh 9.404520 6.981046 15.000000
  Rh 1.343503 0.775672 17.193931
  Rh 4.030509 0.775672 17.193931
  Rh 6.717514 0.775672 17.193931
  Rh 2.687006 3.102687 17.193931
  Rh 5.374012 3.102687 17.193931
  Rh 8.061017 3.102687 17.193931
  Rh 4.030509 5.429702 17.193931
  Rh 6.717514 5.429702 17.193931
  Rh 9.404520 5.429702 17.193931
  Rh 5.374012 7.756718 17.193931
  Rh 8.061017 7.756718 17.193931
  Rh 10.748023 7.756718 17.193931
  Rh 8.069010 1.545029 19.404693
  Rh 2.692502 1.541908 19.406072
  Rh 5.379680 1.546860 19.404499
  Rh 9.407204 3.883575 19.410724
  Rh 4.039128 3.882715 19.400846
  Rh 6.727234 3.881325 19.405072
  Rh 10.759348 6.204280 19.402862
  Rh 5.390436 6.208890 19.431086
  Rh 8.084189 6.212801 19.421446
  Rh 12.098456 8.528832 19.404490
  Rh 6.723504 8.513267 19.432265
  Rh 9.411708 8.526122 19.405606
  Rh 8.066451 0.008652 21.633746
  Rh 8.067193 9.330971 21.622880
  Rh 10.756098 9.316833 21.637690
  Rh 1.350489 2.332189 21.628465
  Rh 4.036749 2.332561 21.627083
  Rh 6.718940 2.323990 21.633931
  Rh 2.690896 4.653663 21.630871
  Rh 5.366444 4.650041 21.627542
  Rh 8.061261 4.630522 21.639176
  Rh 4.018983 6.991117 21.632211
  Rh 6.731653 6.979981 21.717303
  Rh 9.419332 6.998241 21.783390
  C 8.646631 6.793778 23.695903
  O 9.425557 6.918892 24.616312
  O 7.385232 6.498665 23.675412
